PWD /Users/claytonbarnes/Documents/pokestat502/Final Draft
INPUT /usr/local/texlive/2016/texmf.cnf
INPUT /usr/local/texlive/2016/texmf-dist/web2c/texmf.cnf
INPUT /usr/local/texlive/2016/texmf-var/web2c/pdftex/pdflatex.fmt
INPUT test.tex
OUTPUT test.log
INPUT /usr/local/texlive/2016/texmf-dist/tex/latex/base/article.cls
INPUT /usr/local/texlive/2016/texmf-dist/tex/latex/base/article.cls
INPUT /usr/local/texlive/2016/texmf-dist/tex/latex/base/size10.clo
INPUT /usr/local/texlive/2016/texmf-dist/tex/latex/base/size10.clo
OUTPUT preamble2.aux
INPUT preamble2.tex
INPUT preamble2.tex
INPUT /usr/local/texlive/2016/texmf-dist/tex/latex/doublestroke/dsfont.sty
INPUT /usr/local/texlive/2016/texmf-dist/tex/latex/doublestroke/dsfont.sty
INPUT /usr/local/texlive/2016/texmf-dist/tex/latex/psnfss/pifont.sty
INPUT /usr/local/texlive/2016/texmf-dist/tex/latex/psnfss/pifont.sty
INPUT /usr/local/texlive/2016/texmf-dist/tex/latex/psnfss/upzd.fd
INPUT /usr/local/texlive/2016/texmf-dist/tex/latex/psnfss/upzd.fd
INPUT /usr/local/texlive/2016/texmf-dist/fonts/map/fontname/texfonts.map
INPUT /usr/local/texlive/2016/texmf-dist/fonts/tfm/adobe/zapfding/pzdr.tfm
INPUT /usr/local/texlive/2016/texmf-dist/tex/latex/psnfss/upsy.fd
INPUT /usr/local/texlive/2016/texmf-dist/tex/latex/psnfss/upsy.fd
INPUT /usr/local/texlive/2016/texmf-dist/fonts/tfm/adobe/symbol/psyr.tfm
INPUT /usr/local/texlive/2016/texmf-dist/tex/latex/amsfonts/amsfonts.sty
INPUT /usr/local/texlive/2016/texmf-dist/tex/latex/amsfonts/amsfonts.sty
INPUT /usr/local/texlive/2016/texmf-dist/tex/latex/amsfonts/amssymb.sty
INPUT /usr/local/texlive/2016/texmf-dist/tex/latex/amsfonts/amssymb.sty
INPUT /usr/local/texlive/2016/texmf-dist/tex/latex/amsmath/amsmath.sty
INPUT /usr/local/texlive/2016/texmf-dist/tex/latex/amsmath/amsmath.sty
INPUT /usr/local/texlive/2016/texmf-dist/tex/latex/amsmath/amstext.sty
INPUT /usr/local/texlive/2016/texmf-dist/tex/latex/amsmath/amstext.sty
INPUT /usr/local/texlive/2016/texmf-dist/tex/latex/amsmath/amsgen.sty
INPUT /usr/local/texlive/2016/texmf-dist/tex/latex/amsmath/amsgen.sty
INPUT /usr/local/texlive/2016/texmf-dist/tex/latex/amsmath/amsbsy.sty
INPUT /usr/local/texlive/2016/texmf-dist/tex/latex/amsmath/amsbsy.sty
INPUT /usr/local/texlive/2016/texmf-dist/tex/latex/amsmath/amsopn.sty
INPUT /usr/local/texlive/2016/texmf-dist/tex/latex/amsmath/amsopn.sty
INPUT /usr/local/texlive/2016/texmf-dist/tex/latex/graphics/graphicx.sty
INPUT /usr/local/texlive/2016/texmf-dist/tex/latex/graphics/graphicx.sty
INPUT /usr/local/texlive/2016/texmf-dist/tex/latex/graphics/keyval.sty
INPUT /usr/local/texlive/2016/texmf-dist/tex/latex/graphics/keyval.sty
INPUT /usr/local/texlive/2016/texmf-dist/tex/latex/graphics/graphics.sty
INPUT /usr/local/texlive/2016/texmf-dist/tex/latex/graphics/graphics.sty
INPUT /usr/local/texlive/2016/texmf-dist/tex/latex/graphics/trig.sty
INPUT /usr/local/texlive/2016/texmf-dist/tex/latex/graphics/trig.sty
INPUT /usr/local/texlive/2016/texmf-dist/tex/latex/graphics-cfg/graphics.cfg
INPUT /usr/local/texlive/2016/texmf-dist/tex/latex/graphics-cfg/graphics.cfg
INPUT /usr/local/texlive/2016/texmf-dist/tex/latex/pdftex-def/pdftex.def
INPUT /usr/local/texlive/2016/texmf-dist/tex/latex/pdftex-def/pdftex.def
INPUT /usr/local/texlive/2016/texmf-dist/tex/generic/oberdiek/infwarerr.sty
INPUT /usr/local/texlive/2016/texmf-dist/tex/generic/oberdiek/infwarerr.sty
INPUT /usr/local/texlive/2016/texmf-dist/tex/generic/oberdiek/ltxcmds.sty
INPUT /usr/local/texlive/2016/texmf-dist/tex/generic/oberdiek/ltxcmds.sty
INPUT /usr/local/texlive/2016/texmf-dist/tex/latex/graphics/color.sty
INPUT /usr/local/texlive/2016/texmf-dist/tex/latex/graphics/color.sty
INPUT /usr/local/texlive/2016/texmf-dist/tex/latex/graphics-cfg/color.cfg
INPUT /usr/local/texlive/2016/texmf-dist/tex/latex/graphics-cfg/color.cfg
INPUT /usr/local/texlive/2016/texmf-dist/tex/latex/framed/framed.sty
INPUT /usr/local/texlive/2016/texmf-dist/tex/latex/framed/framed.sty
INPUT /usr/local/texlive/2016/texmf-dist/tex/latex/base/alltt.sty
INPUT /usr/local/texlive/2016/texmf-dist/tex/latex/base/alltt.sty
INPUT /usr/local/texlive/2016/texmf-dist/tex/latex/psnfss/mathpazo.sty
INPUT /usr/local/texlive/2016/texmf-dist/tex/latex/psnfss/mathpazo.sty
INPUT /usr/local/texlive/2016/texmf-dist/tex/latex/base/fontenc.sty
INPUT /usr/local/texlive/2016/texmf-dist/tex/latex/base/fontenc.sty
INPUT /usr/local/texlive/2016/texmf-dist/tex/latex/base/t1enc.def
INPUT /usr/local/texlive/2016/texmf-dist/tex/latex/base/t1enc.def
INPUT /usr/local/texlive/2016/texmf-dist/fonts/tfm/jknappen/ec/ecrm1000.tfm
INPUT /usr/local/texlive/2016/texmf-dist/tex/latex/url/url.sty
INPUT /usr/local/texlive/2016/texmf-dist/tex/latex/url/url.sty
INPUT /usr/local/texlive/2016/texmf-dist/tex/latex/hyperref/hyperref.sty
INPUT /usr/local/texlive/2016/texmf-dist/tex/latex/hyperref/hyperref.sty
INPUT /usr/local/texlive/2016/texmf-dist/tex/generic/oberdiek/hobsub-hyperref.sty
INPUT /usr/local/texlive/2016/texmf-dist/tex/generic/oberdiek/hobsub-hyperref.sty
INPUT /usr/local/texlive/2016/texmf-dist/tex/generic/oberdiek/hobsub-hyperref.sty
INPUT /usr/local/texlive/2016/texmf-dist/tex/generic/oberdiek/hobsub-generic.sty
INPUT /usr/local/texlive/2016/texmf-dist/tex/generic/oberdiek/hobsub-generic.sty
INPUT /usr/local/texlive/2016/texmf-dist/tex/generic/ifxetex/ifxetex.sty
INPUT /usr/local/texlive/2016/texmf-dist/tex/generic/ifxetex/ifxetex.sty
INPUT /usr/local/texlive/2016/texmf-dist/tex/latex/oberdiek/auxhook.sty
INPUT /usr/local/texlive/2016/texmf-dist/tex/latex/oberdiek/auxhook.sty
INPUT /usr/local/texlive/2016/texmf-dist/tex/latex/oberdiek/kvoptions.sty
INPUT /usr/local/texlive/2016/texmf-dist/tex/latex/oberdiek/kvoptions.sty
INPUT /usr/local/texlive/2016/texmf-dist/tex/latex/hyperref/pd1enc.def
INPUT /usr/local/texlive/2016/texmf-dist/tex/latex/hyperref/pd1enc.def
INPUT /usr/local/texlive/2016/texmf-dist/tex/latex/latexconfig/hyperref.cfg
INPUT /usr/local/texlive/2016/texmf-dist/tex/latex/latexconfig/hyperref.cfg
INPUT /usr/local/texlive/2016/texmf-dist/tex/latex/hyperref/puenc.def
INPUT /usr/local/texlive/2016/texmf-dist/tex/latex/hyperref/puenc.def
INPUT /usr/local/texlive/2016/texmf-dist/tex/latex/hyperref/hpdftex.def
INPUT /usr/local/texlive/2016/texmf-dist/tex/latex/hyperref/hpdftex.def
INPUT /usr/local/texlive/2016/texmf-dist/tex/latex/oberdiek/rerunfilecheck.sty
INPUT /usr/local/texlive/2016/texmf-dist/tex/latex/oberdiek/rerunfilecheck.sty
INPUT /usr/local/texlive/2016/texmf-dist/tex/latex/breakurl/breakurl.sty
INPUT /usr/local/texlive/2016/texmf-dist/tex/latex/breakurl/breakurl.sty
INPUT /usr/local/texlive/2016/texmf-dist/tex/latex/xkeyval/xkeyval.sty
INPUT /usr/local/texlive/2016/texmf-dist/tex/latex/xkeyval/xkeyval.sty
INPUT /usr/local/texlive/2016/texmf-dist/tex/generic/xkeyval/xkeyval.tex
INPUT /usr/local/texlive/2016/texmf-dist/tex/generic/xkeyval/xkvutils.tex
INPUT /usr/local/texlive/2016/texmf-dist/tex/latex/upquote/upquote.sty
INPUT /usr/local/texlive/2016/texmf-dist/tex/latex/upquote/upquote.sty
INPUT /usr/local/texlive/2016/texmf-dist/tex/latex/upquote/upquote.sty
INPUT /usr/local/texlive/2016/texmf-dist/tex/latex/base/textcomp.sty
INPUT /usr/local/texlive/2016/texmf-dist/tex/latex/base/textcomp.sty
INPUT /usr/local/texlive/2016/texmf-dist/tex/latex/base/ts1enc.def
INPUT /usr/local/texlive/2016/texmf-dist/tex/latex/base/ts1enc.def
INPUT /usr/local/texlive/2016/texmf-dist/tex/latex/amscls/amsthm.sty
INPUT /usr/local/texlive/2016/texmf-dist/tex/latex/amscls/amsthm.sty
INPUT /usr/local/texlive/2016/texmf-dist/tex/latex/geometry/geometry.sty
INPUT /usr/local/texlive/2016/texmf-dist/tex/latex/geometry/geometry.sty
INPUT /usr/local/texlive/2016/texmf-dist/tex/latex/pstricks/pstricks.sty
INPUT /usr/local/texlive/2016/texmf-dist/tex/latex/pstricks/pstricks.sty
INPUT /usr/local/texlive/2016/texmf-dist/tex/latex/xcolor/xcolor.sty
INPUT /usr/local/texlive/2016/texmf-dist/tex/latex/xcolor/xcolor.sty
INPUT /usr/local/texlive/2016/texmf-dist/tex/latex/graphics-cfg/color.cfg
INPUT /usr/local/texlive/2016/texmf-dist/tex/latex/graphics-cfg/color.cfg
INPUT /usr/local/texlive/2016/texmf-dist/tex/latex/graphics/dvipsnam.def
INPUT /usr/local/texlive/2016/texmf-dist/tex/latex/graphics/dvipsnam.def
INPUT /usr/local/texlive/2016/texmf-dist/tex/generic/pstricks/pstricks.tex
INPUT /usr/local/texlive/2016/texmf-dist/tex/generic/pstricks/pstricks.tex
INPUT /usr/local/texlive/2016/texmf-dist/tex/generic/xkeyval/pst-xkey.tex
INPUT /usr/local/texlive/2016/texmf-dist/tex/generic/pstricks/pst-fp.tex
INPUT /usr/local/texlive/2016/texmf-dist/tex/generic/pgf/utilities/pgfutil-common.tex
INPUT /usr/local/texlive/2016/texmf-dist/tex/generic/pgf/utilities/pgfutil-common-lists.tex
INPUT /usr/local/texlive/2016/texmf-dist/tex/generic/pgf/utilities/pgfkeys.code.tex
INPUT /usr/local/texlive/2016/texmf-dist/tex/generic/pgf/utilities/pgfkeysfiltered.code.tex
INPUT /usr/local/texlive/2016/texmf-dist/tex/generic/pgf/utilities/pgffor.code.tex
INPUT /usr/local/texlive/2016/texmf-dist/tex/generic/pgf/math/pgfmath.code.tex
INPUT /usr/local/texlive/2016/texmf-dist/tex/generic/pgf/math/pgfmathcalc.code.tex
INPUT /usr/local/texlive/2016/texmf-dist/tex/generic/pgf/math/pgfmathutil.code.tex
INPUT /usr/local/texlive/2016/texmf-dist/tex/generic/pgf/math/pgfmathparser.code.tex
INPUT /usr/local/texlive/2016/texmf-dist/tex/generic/pgf/math/pgfmathfunctions.code.tex
INPUT /usr/local/texlive/2016/texmf-dist/tex/generic/pgf/math/pgfmathfunctions.basic.code.tex
INPUT /usr/local/texlive/2016/texmf-dist/tex/generic/pgf/math/pgfmathfunctions.trigonometric.code.tex
INPUT /usr/local/texlive/2016/texmf-dist/tex/generic/pgf/math/pgfmathfunctions.random.code.tex
INPUT /usr/local/texlive/2016/texmf-dist/tex/generic/pgf/math/pgfmathfunctions.comparison.code.tex
INPUT /usr/local/texlive/2016/texmf-dist/tex/generic/pgf/math/pgfmathfunctions.base.code.tex
INPUT /usr/local/texlive/2016/texmf-dist/tex/generic/pgf/math/pgfmathfunctions.round.code.tex
INPUT /usr/local/texlive/2016/texmf-dist/tex/generic/pgf/math/pgfmathfunctions.misc.code.tex
INPUT /usr/local/texlive/2016/texmf-dist/tex/generic/pgf/math/pgfmathfunctions.integerarithmetics.code.tex
INPUT /usr/local/texlive/2016/texmf-dist/tex/generic/pgf/math/pgfmathfloat.code.tex
INPUT /usr/local/texlive/2016/texmf-dist/tex/generic/pstricks/pstricks.con
INPUT /usr/local/texlive/2016/texmf-dist/tex/generic/pstricks/pst-fp.tex
INPUT /usr/local/texlive/2016/texmf-dist/tex/generic/pstricks/pst-fp.tex
INPUT /usr/local/texlive/2016/texmf-dist/tex/latex/relsize/relsize.sty
INPUT /usr/local/texlive/2016/texmf-dist/tex/latex/relsize/relsize.sty
INPUT /usr/local/texlive/2016/texmf-dist/tex/latex/breqn/breqn.sty
INPUT /usr/local/texlive/2016/texmf-dist/tex/latex/breqn/breqn.sty
INPUT /usr/local/texlive/2016/texmf-dist/tex/latex/l3kernel/expl3.sty
INPUT /usr/local/texlive/2016/texmf-dist/tex/latex/l3kernel/expl3.sty
INPUT /usr/local/texlive/2016/texmf-dist/tex/latex/l3kernel/expl3-code.tex
INPUT /usr/local/texlive/2016/texmf-dist/tex/latex/l3kernel/expl3-code.tex
INPUT /usr/local/texlive/2016/texmf-dist/tex/generic/unicode-data/UnicodeData.txt
INPUT /usr/local/texlive/2016/texmf-dist/tex/generic/unicode-data/CaseFolding.txt
INPUT /usr/local/texlive/2016/texmf-dist/tex/generic/unicode-data/SpecialCasing.txt
INPUT /usr/local/texlive/2016/texmf-dist/tex/latex/l3kernel/l3pdfmode.def
INPUT /usr/local/texlive/2016/texmf-dist/tex/latex/l3kernel/l3pdfmode.def
INPUT /usr/local/texlive/2016/texmf-dist/tex/latex/breqn/flexisym.sty
INPUT /usr/local/texlive/2016/texmf-dist/tex/latex/breqn/flexisym.sty
INPUT /usr/local/texlive/2016/texmf-dist/tex/latex/breqn/cmbase.sym
INPUT /usr/local/texlive/2016/texmf-dist/tex/latex/breqn/cmbase.sym
INPUT /usr/local/texlive/2016/texmf-dist/tex/latex/breqn/mathstyle.sty
INPUT /usr/local/texlive/2016/texmf-dist/tex/latex/breqn/mathstyle.sty
INPUT /usr/local/texlive/2016/texmf-dist/tex/latex/tools/calc.sty
INPUT /usr/local/texlive/2016/texmf-dist/tex/latex/tools/calc.sty
INPUT /usr/local/texlive/2016/texmf-dist/tex/latex/tools/verbatim.sty
INPUT /usr/local/texlive/2016/texmf-dist/tex/latex/tools/verbatim.sty
INPUT /usr/local/texlive/2016/texmf-dist/tex/latex/enumitem/enumitem.sty
INPUT /usr/local/texlive/2016/texmf-dist/tex/latex/enumitem/enumitem.sty
INPUT /usr/local/texlive/2016/texmf-dist/tex/latex/oberdiek/epstopdf.sty
INPUT /usr/local/texlive/2016/texmf-dist/tex/latex/oberdiek/epstopdf.sty
INPUT /usr/local/texlive/2016/texmf-dist/tex/latex/oberdiek/epstopdf-base.sty
INPUT /usr/local/texlive/2016/texmf-dist/tex/latex/oberdiek/epstopdf-base.sty
INPUT /usr/local/texlive/2016/texmf-dist/tex/latex/oberdiek/grfext.sty
INPUT /usr/local/texlive/2016/texmf-dist/tex/latex/oberdiek/grfext.sty
INPUT /usr/local/texlive/2016/texmf-dist/tex/latex/latexconfig/epstopdf-sys.cfg
INPUT /usr/local/texlive/2016/texmf-dist/tex/latex/latexconfig/epstopdf-sys.cfg
INPUT /usr/local/texlive/2016/texmf-dist/tex/latex/jknapltx/mathrsfs.sty
INPUT /usr/local/texlive/2016/texmf-dist/tex/latex/jknapltx/mathrsfs.sty
INPUT /usr/local/texlive/2016/texmf-dist/tex/latex/algorithm2e/algorithm2e.sty
INPUT /usr/local/texlive/2016/texmf-dist/tex/latex/algorithm2e/algorithm2e.sty
INPUT /usr/local/texlive/2016/texmf-dist/tex/latex/base/ifthen.sty
INPUT /usr/local/texlive/2016/texmf-dist/tex/latex/base/ifthen.sty
INPUT /usr/local/texlive/2016/texmf-dist/tex/latex/tools/xspace.sty
INPUT /usr/local/texlive/2016/texmf-dist/tex/latex/tools/xspace.sty
INPUT /usr/local/texlive/2016/texmf-dist/tex/latex/chngcntr/chngcntr.sty
INPUT /usr/local/texlive/2016/texmf-dist/tex/latex/chngcntr/chngcntr.sty
INPUT test.aux
INPUT test.aux
OUTPUT test.aux
INPUT /usr/local/texlive/2016/texmf-dist/tex/latex/base/ts1cmr.fd
INPUT /usr/local/texlive/2016/texmf-dist/tex/latex/base/ts1cmr.fd
INPUT /usr/local/texlive/2016/texmf-dist/tex/latex/psnfss/t1pplx.fd
INPUT /usr/local/texlive/2016/texmf-dist/tex/latex/psnfss/t1pplx.fd
INPUT /usr/local/texlive/2016/texmf-dist/fonts/tfm/adobe/palatino/pplr9e.tfm
INPUT /usr/local/texlive/2016/texmf-dist/tex/context/base/mkii/supp-pdf.mkii
INPUT /usr/local/texlive/2016/texmf-dist/tex/context/base/mkii/supp-pdf.mkii
INPUT /usr/local/texlive/2016/texmf-dist/tex/latex/hyperref/nameref.sty
INPUT /usr/local/texlive/2016/texmf-dist/tex/latex/hyperref/nameref.sty
INPUT /usr/local/texlive/2016/texmf-dist/tex/generic/oberdiek/gettitlestring.sty
INPUT /usr/local/texlive/2016/texmf-dist/tex/generic/oberdiek/gettitlestring.sty
INPUT test.out
INPUT test.out
INPUT test.out
INPUT test.out
INPUT ./test.out
INPUT ./test.out
OUTPUT test.out
OUTPUT test.pdf
INPUT /usr/local/texlive/2016/texmf-dist/fonts/tfm/adobe/palatino/pplr9e.tfm
INPUT /usr/local/texlive/2016/texmf-dist/fonts/tfm/adobe/palatino/pplr9e.tfm
INPUT /usr/local/texlive/2016/texmf-dist/tex/latex/psnfss/ot1pplx.fd
INPUT /usr/local/texlive/2016/texmf-dist/tex/latex/psnfss/ot1pplx.fd
INPUT /usr/local/texlive/2016/texmf-dist/fonts/tfm/adobe/palatino/pplr9t.tfm
INPUT /usr/local/texlive/2016/texmf-dist/fonts/tfm/adobe/palatino/pplr9t.tfm
INPUT /usr/local/texlive/2016/texmf-dist/fonts/tfm/adobe/palatino/pplr9t.tfm
INPUT /usr/local/texlive/2016/texmf-dist/tex/latex/psnfss/omlzplm.fd
INPUT /usr/local/texlive/2016/texmf-dist/tex/latex/psnfss/omlzplm.fd
INPUT /usr/local/texlive/2016/texmf-dist/fonts/tfm/public/mathpazo/zplmr7m.tfm
INPUT /usr/local/texlive/2016/texmf-dist/fonts/tfm/public/mathpazo/zplmr7m.tfm
INPUT /usr/local/texlive/2016/texmf-dist/fonts/tfm/public/mathpazo/zplmr7m.tfm
INPUT /usr/local/texlive/2016/texmf-dist/tex/latex/psnfss/omszplm.fd
INPUT /usr/local/texlive/2016/texmf-dist/tex/latex/psnfss/omszplm.fd
INPUT /usr/local/texlive/2016/texmf-dist/fonts/tfm/public/mathpazo/zplmr7y.tfm
INPUT /usr/local/texlive/2016/texmf-dist/fonts/tfm/public/mathpazo/zplmr7y.tfm
INPUT /usr/local/texlive/2016/texmf-dist/fonts/tfm/public/mathpazo/zplmr7y.tfm
INPUT /usr/local/texlive/2016/texmf-dist/tex/latex/psnfss/omxzplm.fd
INPUT /usr/local/texlive/2016/texmf-dist/tex/latex/psnfss/omxzplm.fd
INPUT /usr/local/texlive/2016/texmf-dist/fonts/tfm/public/mathpazo/zplmr7v.tfm
INPUT /usr/local/texlive/2016/texmf-dist/fonts/tfm/public/mathpazo/zplmr7v.tfm
INPUT /usr/local/texlive/2016/texmf-dist/fonts/tfm/public/mathpazo/zplmr7v.tfm
INPUT /usr/local/texlive/2016/texmf-dist/fonts/tfm/public/amsfonts/symbols/msam10.tfm
INPUT /usr/local/texlive/2016/texmf-dist/fonts/tfm/public/amsfonts/symbols/msam10.tfm
INPUT /usr/local/texlive/2016/texmf-dist/fonts/tfm/public/amsfonts/symbols/msam10.tfm
INPUT /usr/local/texlive/2016/texmf-dist/fonts/tfm/public/amsfonts/symbols/msbm10.tfm
INPUT /usr/local/texlive/2016/texmf-dist/fonts/tfm/public/amsfonts/symbols/msbm10.tfm
INPUT /usr/local/texlive/2016/texmf-dist/fonts/tfm/public/amsfonts/symbols/msbm10.tfm
INPUT /usr/local/texlive/2016/texmf-dist/tex/latex/psnfss/ot1zplm.fd
INPUT /usr/local/texlive/2016/texmf-dist/tex/latex/psnfss/ot1zplm.fd
INPUT /usr/local/texlive/2016/texmf-dist/fonts/tfm/public/mathpazo/zplmr7t.tfm
INPUT /usr/local/texlive/2016/texmf-dist/fonts/tfm/public/mathpazo/zplmr7t.tfm
INPUT /usr/local/texlive/2016/texmf-dist/fonts/tfm/public/mathpazo/zplmr7t.tfm
INPUT /usr/local/texlive/2016/texmf-dist/tex/latex/jknapltx/ursfs.fd
INPUT /usr/local/texlive/2016/texmf-dist/tex/latex/jknapltx/ursfs.fd
INPUT /usr/local/texlive/2016/texmf-dist/fonts/tfm/public/rsfs/rsfs10.tfm
INPUT /usr/local/texlive/2016/texmf-dist/fonts/tfm/public/rsfs/rsfs10.tfm
INPUT /usr/local/texlive/2016/texmf-dist/fonts/tfm/public/rsfs/rsfs7.tfm
INPUT /usr/local/texlive/2016/texmf-dist/tex/latex/base/t1cmtt.fd
INPUT /usr/local/texlive/2016/texmf-dist/tex/latex/base/t1cmtt.fd
INPUT /usr/local/texlive/2016/texmf-dist/fonts/tfm/jknappen/ec/ectt1200.tfm
INPUT /usr/local/texlive/2016/texmf-dist/fonts/tfm/adobe/palatino/pplr9e.tfm
INPUT /usr/local/texlive/2016/texmf-dist/fonts/tfm/adobe/palatino/pplb9e.tfm
INPUT /usr/local/texlive/2016/texmf-dist/fonts/vf/adobe/palatino/pplr9e.vf
INPUT /usr/local/texlive/2016/texmf-dist/fonts/tfm/adobe/palatino/pplr8r.tfm
INPUT /usr/local/texlive/2016/texmf-dist/fonts/tfm/public/mathpazo/fplmr.tfm
INPUT /usr/local/texlive/2016/texmf-var/fonts/map/pdftex/updmap/pdftex.map
INPUT /usr/local/texlive/2016/texmf-dist/fonts/vf/adobe/palatino/pplr9e.vf
INPUT /usr/local/texlive/2016/texmf-dist/fonts/tfm/adobe/palatino/pplr8r.tfm
INPUT /usr/local/texlive/2016/texmf-dist/fonts/tfm/public/mathpazo/fplmr.tfm
INPUT /usr/local/texlive/2016/texmf-dist/fonts/vf/adobe/palatino/pplb9e.vf
INPUT /usr/local/texlive/2016/texmf-dist/fonts/tfm/adobe/palatino/pplb8r.tfm
INPUT /usr/local/texlive/2016/texmf-dist/fonts/tfm/public/mathpazo/fplmb.tfm
INPUT /usr/local/texlive/2016/texmf-dist/fonts/vf/adobe/palatino/pplr9e.vf
INPUT /usr/local/texlive/2016/texmf-dist/fonts/tfm/adobe/palatino/pplr8r.tfm
INPUT /usr/local/texlive/2016/texmf-dist/fonts/tfm/public/mathpazo/fplmr.tfm
INPUT /usr/local/texlive/2016/texmf-dist/fonts/vf/adobe/palatino/pplr9e.vf
INPUT /usr/local/texlive/2016/texmf-dist/fonts/tfm/adobe/palatino/pplr8r.tfm
INPUT /usr/local/texlive/2016/texmf-dist/fonts/tfm/public/mathpazo/fplmr.tfm
INPUT /usr/local/texlive/2016/texmf-dist/fonts/tfm/adobe/palatino/pplr9e.tfm
INPUT /usr/local/texlive/2016/texmf-dist/fonts/tfm/adobe/palatino/pplb9e.tfm
INPUT IMG_6439.PNG
INPUT ./IMG_6439.PNG
INPUT ./IMG_6439.PNG
INPUT IMG_6440.PNG
INPUT ./IMG_6440.PNG
INPUT ./IMG_6440.PNG
INPUT IMG_6443.PNG
INPUT ./IMG_6443.PNG
INPUT ./IMG_6443.PNG
INPUT IMG_6444.PNG
INPUT ./IMG_6444.PNG
INPUT ./IMG_6444.PNG
INPUT /usr/local/texlive/2016/texmf-dist/tex/latex/psnfss/ts1pplx.fd
INPUT /usr/local/texlive/2016/texmf-dist/tex/latex/psnfss/ts1pplx.fd
INPUT /usr/local/texlive/2016/texmf-dist/fonts/tfm/adobe/palatino/pplr9c.tfm
INPUT /usr/local/texlive/2016/texmf-dist/fonts/tfm/adobe/palatino/pplri9e.tfm
INPUT /usr/local/texlive/2016/texmf-dist/fonts/tfm/adobe/palatino/pplr9t.tfm
INPUT /usr/local/texlive/2016/texmf-dist/fonts/tfm/public/mathpazo/zplmr7m.tfm
INPUT /usr/local/texlive/2016/texmf-dist/fonts/tfm/public/mathpazo/zplmr7y.tfm
INPUT /usr/local/texlive/2016/texmf-dist/fonts/tfm/public/mathpazo/zplmr7v.tfm
INPUT /usr/local/texlive/2016/texmf-dist/fonts/tfm/public/amsfonts/symbols/msam10.tfm
INPUT /usr/local/texlive/2016/texmf-dist/fonts/tfm/public/amsfonts/symbols/msbm10.tfm
INPUT /usr/local/texlive/2016/texmf-dist/fonts/tfm/public/mathpazo/zplmr7t.tfm
INPUT /usr/local/texlive/2016/texmf-dist/fonts/tfm/public/rsfs/rsfs5.tfm
INPUT /usr/local/texlive/2016/texmf-dist/fonts/vf/adobe/palatino/pplb9e.vf
INPUT /usr/local/texlive/2016/texmf-dist/fonts/tfm/adobe/palatino/pplb8r.tfm
INPUT /usr/local/texlive/2016/texmf-dist/fonts/tfm/public/mathpazo/fplmb.tfm
INPUT /usr/local/texlive/2016/texmf-dist/fonts/vf/adobe/palatino/pplr9c.vf
INPUT /usr/local/texlive/2016/texmf-dist/fonts/tfm/adobe/palatino/pplrc8r.tfm
INPUT /usr/local/texlive/2016/texmf-dist/fonts/vf/adobe/palatino/pplri9e.vf
INPUT /usr/local/texlive/2016/texmf-dist/fonts/tfm/adobe/palatino/pplri8r.tfm
INPUT /usr/local/texlive/2016/texmf-dist/fonts/tfm/public/mathpazo/fplmri.tfm
INPUT /usr/local/texlive/2016/texmf-dist/fonts/vf/public/mathpazo/zplmr7m.vf
INPUT /usr/local/texlive/2016/texmf-dist/fonts/tfm/public/cm/cmmi10.tfm
INPUT catchHist.pdf
INPUT ./catchHist.pdf
INPUT ./catchHist.pdf
INPUT /usr/local/texlive/2016/texmf-dist/fonts/tfm/adobe/palatino/pplr9t.tfm
INPUT /usr/local/texlive/2016/texmf-dist/fonts/tfm/adobe/palatino/pplr9t.tfm
INPUT /usr/local/texlive/2016/texmf-dist/fonts/tfm/adobe/palatino/pplr9t.tfm
INPUT /usr/local/texlive/2016/texmf-dist/fonts/tfm/public/mathpazo/zplmr7m.tfm
INPUT /usr/local/texlive/2016/texmf-dist/fonts/tfm/public/mathpazo/zplmr7m.tfm
INPUT /usr/local/texlive/2016/texmf-dist/fonts/tfm/public/mathpazo/zplmr7m.tfm
INPUT /usr/local/texlive/2016/texmf-dist/fonts/tfm/public/mathpazo/zplmr7y.tfm
INPUT /usr/local/texlive/2016/texmf-dist/fonts/tfm/public/mathpazo/zplmr7y.tfm
INPUT /usr/local/texlive/2016/texmf-dist/fonts/tfm/public/mathpazo/zplmr7y.tfm
INPUT /usr/local/texlive/2016/texmf-dist/fonts/tfm/public/mathpazo/zplmr7v.tfm
INPUT /usr/local/texlive/2016/texmf-dist/fonts/tfm/public/mathpazo/zplmr7v.tfm
INPUT /usr/local/texlive/2016/texmf-dist/fonts/tfm/public/mathpazo/zplmr7v.tfm
INPUT /usr/local/texlive/2016/texmf-dist/fonts/tfm/public/amsfonts/symbols/msam10.tfm
INPUT /usr/local/texlive/2016/texmf-dist/fonts/tfm/public/amsfonts/symbols/msam10.tfm
INPUT /usr/local/texlive/2016/texmf-dist/fonts/tfm/public/amsfonts/symbols/msam10.tfm
INPUT /usr/local/texlive/2016/texmf-dist/fonts/tfm/public/amsfonts/symbols/msbm10.tfm
INPUT /usr/local/texlive/2016/texmf-dist/fonts/tfm/public/amsfonts/symbols/msbm10.tfm
INPUT /usr/local/texlive/2016/texmf-dist/fonts/tfm/public/amsfonts/symbols/msbm10.tfm
INPUT /usr/local/texlive/2016/texmf-dist/fonts/tfm/public/mathpazo/zplmr7t.tfm
INPUT /usr/local/texlive/2016/texmf-dist/fonts/tfm/public/mathpazo/zplmr7t.tfm
INPUT /usr/local/texlive/2016/texmf-dist/fonts/tfm/public/mathpazo/zplmr7t.tfm
INPUT /usr/local/texlive/2016/texmf-dist/fonts/tfm/public/rsfs/rsfs10.tfm
INPUT /usr/local/texlive/2016/texmf-dist/fonts/tfm/public/rsfs/rsfs10.tfm
INPUT /usr/local/texlive/2016/texmf-dist/fonts/tfm/public/rsfs/rsfs5.tfm
INPUT /usr/local/texlive/2016/texmf-dist/fonts/tfm/adobe/palatino/pplb9e.tfm
INPUT /usr/local/texlive/2016/texmf-dist/fonts/vf/adobe/palatino/pplr9t.vf
INPUT /usr/local/texlive/2016/texmf-dist/fonts/vf/public/mathpazo/zplmr7y.vf
INPUT /usr/local/texlive/2016/texmf-dist/fonts/tfm/public/cm/cmsy10.tfm
INPUT /usr/local/texlive/2016/texmf-dist/fonts/vf/adobe/palatino/pplr9t.vf
INPUT /usr/local/texlive/2016/texmf-dist/fonts/tfm/public/mathpazo/fplmr.tfm
INPUT /usr/local/texlive/2016/texmf-dist/fonts/tfm/adobe/palatino/pplr8r.tfm
INPUT /usr/local/texlive/2016/texmf-dist/fonts/vf/public/mathpazo/zplmr7m.vf
INPUT /usr/local/texlive/2016/texmf-dist/fonts/tfm/public/mathpazo/fplmri.tfm
INPUT /usr/local/texlive/2016/texmf-dist/fonts/tfm/public/cm/cmmi10.tfm
INPUT /usr/local/texlive/2016/texmf-dist/fonts/tfm/adobe/palatino/pplri8r.tfm
INPUT /usr/local/texlive/2016/texmf-dist/fonts/vf/adobe/palatino/pplb9e.vf
INPUT /usr/local/texlive/2016/texmf-dist/fonts/tfm/adobe/palatino/pplb8r.tfm
INPUT /usr/local/texlive/2016/texmf-dist/fonts/tfm/public/mathpazo/fplmb.tfm
INPUT /usr/local/texlive/2016/texmf-dist/fonts/vf/public/mathpazo/zplmr7v.vf
INPUT /usr/local/texlive/2016/texmf-dist/fonts/tfm/public/cm/cmex10.tfm
INPUT /usr/local/texlive/2016/texmf-dist/fonts/tfm/public/cm/cmex10.tfm
INPUT /usr/local/texlive/2016/texmf-dist/fonts/tfm/public/cm/cmex10.tfm
INPUT /usr/local/texlive/2016/texmf-dist/fonts/tfm/public/mathpazo/fplmr.tfm
INPUT figure/minimal-power-graph-1.pdf
INPUT ./figure/minimal-power-graph-1.pdf
INPUT ./figure/minimal-power-graph-1.pdf
INPUT test.aux
INPUT ./test.out
INPUT ./test.out
INPUT /usr/local/texlive/2016/texmf-dist/fonts/enc/dvips/base/8r.enc
INPUT /usr/local/texlive/2016/texmf-dist/fonts/enc/dvips/cm-super/cm-super-t1.enc
INPUT /usr/local/texlive/2016/texmf-dist/fonts/type1/public/amsfonts/cm/cmsy10.pfb
INPUT /usr/local/texlive/2016/texmf-dist/fonts/type1/public/mathpazo/fplmr.pfb
INPUT /usr/local/texlive/2016/texmf-dist/fonts/type1/public/mathpazo/fplmri.pfb
INPUT /usr/local/texlive/2016/texmf-dist/fonts/type1/public/cm-super/sftt1200.pfb
INPUT /usr/local/texlive/2016/texmf-dist/fonts/type1/urw/palatino/uplb8a.pfb
INPUT /usr/local/texlive/2016/texmf-dist/fonts/type1/urw/palatino/uplr8a.pfb
INPUT /usr/local/texlive/2016/texmf-dist/fonts/type1/urw/palatino/uplri8a.pfb
